<?xml version="1.0" encoding="UTF-8" standalone="no"?>
<svg
   xmlns:dc="http://purl.org/dc/elements/1.1/"
   xmlns:cc="http://creativecommons.org/ns#"
   xmlns:rdf="http://www.w3.org/1999/02/22-rdf-syntax-ns#"
   xmlns:svg="http://www.w3.org/2000/svg"
   xmlns="http://www.w3.org/2000/svg"
   xmlns:sodipodi="http://sodipodi.sourceforge.net/DTD/sodipodi-0.dtd"
   xmlns:inkscape="http://www.inkscape.org/namespaces/inkscape"
   version="1.1"
   x="0px"
   y="0px"
   viewBox="0 0 24 30"
   enable-background="new 0 0 24 24"
   xml:space="preserve"
   id="svg36"
   sodipodi:docname="adressbook.svg"
   inkscape:version="0.92.3 (2405546, 2018-03-11)"><metadata
     id="metadata42"><rdf:RDF><cc:Work
         rdf:about=""><dc:format>image/svg+xml</dc:format><dc:type
           rdf:resource="http://purl.org/dc/dcmitype/StillImage" /></cc:Work></rdf:RDF></metadata><defs
     id="defs40" /><sodipodi:namedview
     pagecolor="#ffffff"
     bordercolor="#666666"
     borderopacity="1"
     objecttolerance="10"
     gridtolerance="10"
     guidetolerance="10"
     inkscape:pageopacity="0"
     inkscape:pageshadow="2"
     inkscape:window-width="1875"
     inkscape:window-height="1054"
     id="namedview38"
     showgrid="false"
     inkscape:zoom="7.8666667"
     inkscape:cx="38.822034"
     inkscape:cy="20.084746"
     inkscape:window-x="0"
     inkscape:window-y="0"
     inkscape:window-maximized="0"
     inkscape:current-layer="svg36" /><g
     id="g30"><g
       id="g22"><path
         d="M8.966,23.435H4.573c-0.968,0-1.569-0.076-1.972-0.48c-0.446-0.447-0.48-1.178-0.478-2.016l-0.01-1.231l1-0.008    l0.01,1.241c-0.002,0.581,0.02,1.141,0.186,1.308c0.164,0.164,0.73,0.187,1.264,0.187h13.176c1.191-0.001,1.237-0.046,1.237-1.216    l0.002-18.425c0-1.167-0.058-1.224-1.241-1.226C13.581,1.563,9.411,1.565,5.241,1.567C3.134,1.568,3.134,1.568,3.134,3.749    c0,0.037-0.007,0.094-0.016,0.129C3.112,3.918,3.107,4.006,3.112,4.233c0.005,0.276-0.214,0.504-0.49,0.51    c-0.317-0.016-0.504-0.215-0.51-0.49c-0.008-0.39,0.012-0.511,0.03-0.594C2.134,0.967,2.326,0.568,5.241,0.567    c4.169-0.002,8.337-0.004,12.508,0.002c1.737,0.002,2.239,0.502,2.239,2.226l-0.002,18.425c0,1.718-0.502,2.215-2.237,2.216H8.966    z M2.677,17.714c-0.276,0-0.5-0.224-0.5-0.5V13.24c0-0.276,0.224-0.5,0.5-0.5s0.5,0.224,0.5,0.5v3.975    C3.177,17.491,2.953,17.714,2.677,17.714z M2.685,11.23c-0.276,0-0.5-0.224-0.5-0.5L2.182,6.739    C2.179,6.463,2.4,6.237,2.677,6.234c0.001,0,0.003,0,0.005,0c0.273,0,0.497,0.221,0.5,0.495l0.003,4.001    C3.185,11.006,2.961,11.23,2.685,11.23z"
         id="path2" /><g
         id="g20"><g
           id="g10"><path
             d="M3.96,6.922c-0.001,0-0.001,0-0.002,0l-2.27-0.008c-0.872,0-1.584-0.712-1.584-1.586S0.816,3.743,1.69,3.743h2.126      c0.874,0,1.586,0.712,1.586,1.586C5.402,6.252,4.796,6.922,3.96,6.922z M1.69,4.743c-0.323,0-0.586,0.263-0.586,0.586      S1.367,5.915,1.69,5.915l2.271,0.008c0.42-0.001,0.441-0.495,0.441-0.594c0-0.323-0.263-0.586-0.586-0.586H1.69z"
             id="path4" /><path
             d="M3.816,13.403H1.69c-0.874,0-1.586-0.712-1.586-1.586c0-0.875,0.712-1.587,1.586-1.587h2.126      c0.874,0,1.586,0.712,1.586,1.587C5.402,12.691,4.69,13.403,3.816,13.403z M1.69,11.23c-0.323,0-0.586,0.264-0.586,0.587      s0.263,0.586,0.586,0.586h2.126c0.323,0,0.586-0.263,0.586-0.586S4.14,11.23,3.816,11.23H1.69z"
             id="path6" /><path
             d="M3.816,19.886H1.69c-0.874,0-1.586-0.712-1.586-1.586s0.712-1.586,1.586-1.586h2.126c0.874,0,1.586,0.712,1.586,1.586      S4.69,19.886,3.816,19.886z M1.69,17.714c-0.323,0-0.586,0.263-0.586,0.586s0.263,0.586,0.586,0.586h2.126      c0.323,0,0.586-0.263,0.586-0.586s-0.263-0.586-0.586-0.586H1.69z"
             id="path8" /></g><g
           id="g18"><path
             d="M21.564,21.068h-0.752c-0.276,0-0.5-0.224-0.5-0.5v-4.507c0-0.276,0.224-0.5,0.5-0.5h0.752      c2.331,0,2.331,2.073,2.331,2.754S23.896,21.068,21.564,21.068z M21.313,20.068h0.252c1.119,0,1.331-0.616,1.331-1.753      c0-1.138-0.212-1.754-1.331-1.754h-0.252V20.068z"
             id="path12" /><path
             d="M21.564,14.568h-0.752c-0.276,0-0.5-0.224-0.5-0.5V9.561c0-0.276,0.224-0.5,0.5-0.5h0.752      c2.331,0,2.331,2.073,2.331,2.754S23.896,14.568,21.564,14.568z M21.313,13.568h0.252c1.119,0,1.331-0.616,1.331-1.753      c0-1.138-0.212-1.754-1.331-1.754h-0.252V13.568z"
             id="path14" /><path
             d="M21.564,8.068h-0.752c-0.276,0-0.5-0.224-0.5-0.5V3.061c0-0.276,0.224-0.5,0.5-0.5h0.752      c2.331,0,2.331,2.073,2.331,2.754S23.896,8.068,21.564,8.068z M21.313,7.068h0.252c1.119,0,1.331-0.616,1.331-1.753      c0-1.138-0.212-1.754-1.331-1.754h-0.252V7.068z"
             id="path16" /></g></g></g><g
       id="g28"><path
         d="M11.175,11.184c-1.208,0-2.19-0.982-2.19-2.19c0-1.207,0.982-2.189,2.19-2.189c1.207,0,2.189,0.982,2.189,2.189    C13.364,10.202,12.382,11.184,11.175,11.184z M11.175,7.804c-0.656,0-1.19,0.533-1.19,1.189s0.534,1.19,1.19,1.19    s1.189-0.534,1.189-1.19S11.831,7.804,11.175,7.804z"
         id="path24" /><path
         d="M15.894,17.196c-0.004,0.001-0.012,0.001-0.02,0H6.475c-0.276,0-0.5-0.224-0.5-0.5c0-2.867,2.333-5.199,5.2-5.199    c2.817,0,5.119,2.253,5.197,5.052c0.015,0.047,0.021,0.096,0.021,0.147C16.394,16.972,16.17,17.196,15.894,17.196z M7.004,16.196    h8.341c-0.248-2.081-2.023-3.699-4.17-3.699S7.252,14.115,7.004,16.196z"
         id="path26" /></g></g></svg>