<?xml version="1.0" encoding="UTF-8" standalone="no"?>
<svg
   xmlns:dc="http://purl.org/dc/elements/1.1/"
   xmlns:cc="http://creativecommons.org/ns#"
   xmlns:rdf="http://www.w3.org/1999/02/22-rdf-syntax-ns#"
   xmlns:svg="http://www.w3.org/2000/svg"
   xmlns="http://www.w3.org/2000/svg"
   xmlns:sodipodi="http://sodipodi.sourceforge.net/DTD/sodipodi-0.dtd"
   xmlns:inkscape="http://www.inkscape.org/namespaces/inkscape"
   version="1.1"
   x="0px"
   y="0px"
   viewBox="0 0 100 125"
   style="enable-background:new 0 0 100 100;"
   xml:space="preserve"
   id="svg30"
   sodipodi:docname="vps.svg"
   inkscape:version="0.92.3 (2405546, 2018-03-11)"><metadata
     id="metadata36"><rdf:RDF><cc:Work
         rdf:about=""><dc:format>image/svg+xml</dc:format><dc:type
           rdf:resource="http://purl.org/dc/dcmitype/StillImage" /></cc:Work></rdf:RDF></metadata><defs
     id="defs34" /><sodipodi:namedview
     pagecolor="#ffffff"
     bordercolor="#666666"
     borderopacity="1"
     objecttolerance="10"
     gridtolerance="10"
     guidetolerance="10"
     inkscape:pageopacity="0"
     inkscape:pageshadow="2"
     inkscape:window-width="852"
     inkscape:window-height="480"
     id="namedview32"
     showgrid="false"
     inkscape:zoom="1.888"
     inkscape:cx="50"
     inkscape:cy="62.5"
     inkscape:window-x="0"
     inkscape:window-y="0"
     inkscape:window-maximized="0"
     inkscape:current-layer="svg30" /><g
     id="g24"><path
       d="M34.91,48.86c-1.97,0-3.57,1.6-3.57,3.57S32.94,56,34.91,56s3.57-1.6,3.57-3.57S36.88,48.86,34.91,48.86z M34.91,54   c-0.87,0-1.57-0.7-1.57-1.57c0-0.86,0.7-1.57,1.57-1.57c0.86,0,1.57,0.7,1.57,1.57C36.48,53.29,35.77,54,34.91,54z"
       id="path2" /><rect
       x="66.77"
       y="49.86"
       width="2"
       height="5.14"
       id="rect4" /><rect
       x="63.01"
       y="49.86"
       width="2"
       height="5.14"
       id="rect6" /><rect
       x="59.26"
       y="49.86"
       width="2"
       height="5.14"
       id="rect8" /><rect
       x="55.5"
       y="49.86"
       width="2"
       height="5.14"
       id="rect10" /><path
       d="M34.91,74.77c1.97,0,3.57-1.6,3.57-3.57s-1.6-3.57-3.57-3.57s-3.57,1.6-3.57,3.57S32.94,74.77,34.91,74.77z M34.91,69.64   c0.86,0,1.57,0.7,1.57,1.57c0,0.87-0.7,1.57-1.57,1.57c-0.87,0-1.57-0.7-1.57-1.57C33.34,70.34,34.04,69.64,34.91,69.64z"
       id="path12" /><rect
       x="66.77"
       y="68.64"
       width="2"
       height="5.14"
       id="rect14" /><rect
       x="63.01"
       y="68.64"
       width="2"
       height="5.14"
       id="rect16" /><rect
       x="59.26"
       y="68.64"
       width="2"
       height="5.14"
       id="rect18" /><rect
       x="55.5"
       y="68.64"
       width="2"
       height="5.14"
       id="rect20" /><path
       d="M64.76,38.89c6.84,0,12.4-5.56,12.4-12.4c0-6.51-5.05-11.87-11.44-12.36c-0.49-5.65-5.25-10.1-11.02-10.1   c-5.51,0-10.04,3.95-10.9,9.23c-0.82-0.31-1.69-0.47-2.57-0.47c-3.68,0-6.73,2.76-7.18,6.33c-6.03-0.81-11.21,3.95-11.21,9.84   c0,5.48,4.46,9.93,9.93,9.93h16.19v5.61H26.88v15.85H49v2.93H26.88v15.85h22.36v7.26c-1.85,0.29-3.34,1.69-3.74,3.5H33.63   c-0.55,0-1,0.45-1,1s0.45,1,1,1H45.5c0.46,2.04,2.28,3.58,4.46,3.58s4-1.53,4.46-3.58h11.97c0.55,0,1-0.45,1-1s-0.45-1-1-1H54.42   c-0.36-1.62-1.59-2.9-3.17-3.37v-7.39h21.88V63.28H51v-2.93h22.12V44.5H50.96v-5.61H64.76z M52.53,90.89   c0,1.42-1.16,2.58-2.58,2.58c-1.3,0-2.37-0.98-2.54-2.23c0.04-0.11,0.07-0.22,0.07-0.34s-0.03-0.23-0.07-0.34   c0.17-1.26,1.24-2.23,2.54-2.23C51.38,88.32,52.53,89.47,52.53,90.89z M71.12,65.28v11.85H28.88V65.28H71.12z M71.12,46.5v11.85   H28.88V46.5H71.12z M32.77,36.89c-4.37,0-7.93-3.56-7.93-7.93s3.56-7.93,7.93-7.93c0.64,0,1.31,0.09,1.98,0.26l1.31,0.34l-0.07-1.6   c0-2.89,2.35-5.24,5.24-5.24c1.02,0,2.02,0.3,2.88,0.86l1.5,0.99l0.05-1.8c0.13-4.94,4.11-8.81,9.05-8.81c5,0,9.06,4.07,9.06,9.06   v1h1c5.73,0,10.4,4.67,10.4,10.4s-4.67,10.4-10.4,10.4H49.96H32.77z"
       id="path22" /></g></svg>